<?xml version="1.0" encoding="utf-8"?>
<!-- Generator: Adobe Illustrator 16.0.0, SVG Export Plug-In . SVG Version: 6.00 Build 0)  -->
<!DOCTYPE svg PUBLIC "-//W3C//DTD SVG 1.1//EN" "http://www.w3.org/Graphics/SVG/1.1/DTD/svg11.dtd">
<svg version="1.1" id="Layer_1" xmlns="http://www.w3.org/2000/svg" xmlns:xlink="http://www.w3.org/1999/xlink" x="0px" y="0px"
	 width="92px" height="92px" viewBox="0 0 92 92" enable-background="new 0 0 92 92" xml:space="preserve">
<g id="Background">
	<rect fill-opacity="0" width="92" height="92"/>
</g>
<g id="g4503">
	<g>
		<path fill="#B7B7B7" d="M85.566,69.195C101.96,42.364,82.105-1.153,45.798,3.268C12.995,7.26,12.466,41.247,41.376,49.321
			c25.019,6.993,5.169,22.612,5.749,33.015C47.707,92.737,68.874,96.51,85.566,69.195z"/>
		<path fill="#B7B7B7" d="M39.341,69.16c1.991,7.484-2.559,15.14-10.162,17.099s-15.381-2.52-17.371-10.004
			c-1.99-7.483,2.56-15.14,10.163-17.099S37.351,61.676,39.341,69.16z"/>
		<path fill="#B7B7B7" d="M8.415,33.961c-5.119,0.488-8.867,4.964-8.371,10.003c0.496,5.043,5.044,8.734,10.164,8.246
			c5.118-0.494,8.869-4.969,8.371-10.009C18.082,37.166,13.535,33.473,8.415,33.961z"/>
		<path fill="#B7B7B7" d="M86.186,68.105C102.58,41.275,82.725-2.242,46.418,2.179c-32.803,3.992-33.332,37.98-4.422,46.054
			c25.018,6.994,5.168,22.615,5.748,33.019C48.328,91.648,69.493,95.422,86.186,68.105z"/>
		<path fill="#B7B7B7" d="M51.951,85.355c-0.993-1.586,0.525-3.35,2.088-3.215c2.484,0.215,7.898-0.028,12.168-2.412
			c10.67-5.953,27.089-34.602,18.831-52.669c-3.697-8.088-5.497-10.404-9.304-14.36c-0.777-0.807-0.332-0.763,0.195-0.49
			c2.059,1.064,5.676,5.184,9.387,11.889c6.271,11.329,5.945,24.798,3.613,33.247c-1.625,5.878-7.221,19.175-15.414,24.923
			C65.305,88.03,55.693,91.334,51.951,85.355z"/>
		<path fill="#B7B7B7" d="M44.517,48.178c-5.59-1.633-12.796-3.908-16.964-9.275c-3.073-3.957-4.633-8.275-5.031-10.724
			c-0.142-0.874-0.262-1.603-0.006-1.804c0.118-0.093,2.294,4.749,5.547,8.806c3.253,4.059,7.799,6.433,11.586,7.296
			c3.368,0.766,10.346,2.451,12.707,4.431c2.429,2.035,2.629,6.431,1.813,6.927C53.346,54.334,51.675,50.27,44.517,48.178z"/>
		<path fill="#B7B7B7" d="M56.043,86.131c-0.107,1.26,1.361,1.506,3.339,1.214c2.536-0.374,4.681-0.655,7.599-2.095
			c3.955-1.951,7.957-4.742,10.89-8.507c8.747-11.233,11.844-24.524,11.366-26.435c-0.158,1.577-2.271,9.864-7.1,17.338
			c-6.203,9.597-10.699,14.709-21.072,17.188C58.178,85.523,56.184,84.473,56.043,86.131z"/>
		<path fill="#B7B7B7" d="M33.038,42.451c1.181,0.986,3.602,2.301,8.364,3.838c5.752,1.855,8.553,3.466,9.726,4.238
			c1.243,0.817,2.031,2.646,2.108,1.021c0.082-1.625-0.938-3.021-3.207-3.764c-1.537-0.502-4.121-1.698-6.599-2.179
			c-1.592-0.31-4.182-0.923-6.403-1.593C35.809,43.646,34.569,43.001,33.038,42.451z"/>
		<path fill="#B7B7B7" d="M39.961,68.071c1.991,7.482-2.559,15.14-10.162,17.099c-7.604,1.959-15.381-2.52-17.371-10.004
			c-1.991-7.484,2.56-15.139,10.163-17.1C30.194,56.107,37.971,60.587,39.961,68.071z"/>
		<path fill="#B7B7B7" d="M17.723,81.828c11.069,10.096,27.73-3.773,20.393-16.021c-0.824-1.377-1.893-2.424-1.541-1.369
			c2.344,7.043,0.178,12.614-3.865,15.485c-3.964,2.816-9.412,3.287-13.773,1.062C17.656,80.33,17.125,81.283,17.723,81.828z"/>
		<path fill="#B7B7B7" d="M26.408,83.9c1.409-0.291,9.606-2.381,11.532-9.018c0.599-2.068,0.707-1.652,0.537-0.531
			c-0.865,5.723-6.359,9.942-11.035,10.1C26.493,84.547,25.248,84.141,26.408,83.9z"/>
		<path fill="#B7B7B7" d="M9.035,32.872c-5.119,0.488-8.867,4.964-8.371,10.003c0.496,5.042,5.044,8.734,10.163,8.247
			c5.119-0.495,8.869-4.971,8.371-10.01C18.701,36.076,14.155,32.384,9.035,32.872z"/>
		<path fill="#B7B7B7" d="M4.81,48.967c0.057,0.648,0.958,1.48,2.374,1.862c1.216,0.328,4.351,1.167,8.379-1.336
			c4.028-2.502,4.493-9.196,2.662-11.165c-0.567-0.997-1.304-1.723-0.718-0.131c1.481,4.018-1.396,7.777-3.879,9.518
			c-2.481,1.74-5.628,0.917-6.913,0.531C5.43,47.859,4.752,48.298,4.81,48.967z"/>
		<path fill="#B7B7B7" d="M10.008,49.866c0.369-0.327,2.238-0.193,3.925-1.087c1.687-0.895,3.692-2.852,4.049-5.632
			c0.211-1.633,0.274-1.223,0.358-0.334c-0.262,4.625-4.582,7.179-7.053,7.516C10.62,50.42,9.447,50.365,10.008,49.866z"/>
		<path fill="#B7B7B7" d="M83.916,50.676C90.896,30.872,76.29,0.963,46.74,4.561c-26.7,3.25-27.131,30.913-3.6,37.485
			c26.654,3.972,10.604,23.765,8.327,33.745C49.426,84.737,73.007,86.21,83.916,50.676z"/>
		<path fill="#EAE7E4" d="M65.652,66.145c-7.221-0.879-17.611,15.168-7.813,13.289c9.796-1.877-9.798,1.879,0,0
			c4.709-0.688,8.61-2.324,12.103-6.248c4.555-5.113,11.356-16.164,13.324-23.304c1.656-6.019,0.823-15.345-0.885-6.583
			C80.629,52.292,72.873,67.025,65.652,66.145z"/>
		<path fill="#B7B7B7" d="M17.149,78.98c1.672,0.027,2.683,0.261,4.376,1.43c3.346,1.369,9.497,0.501,12.338-3.18
			c2.84-3.682,2.933-8.752,1.851-11.816c-2.647-7.5-13.894-7.368-18.919-1.141C11.36,71.227,15.477,78.954,17.149,78.98z"/>
		<path fill="#B7B7B7" d="M2.22,44.226c0.333,1.033,1.184,2.54,2.982,2.792c2.401,0.336,2.892,1.402,5.727,0.85
			c2.835-0.555,4.984-2.84,5.844-5.37c0.984-3.5-0.49-5.308-2.708-6.921c-2.219-1.613-7.099-1.44-10.012,1.173
			C1.984,38.605,1.408,41.711,2.22,44.226z"/>
		<path fill="#EAE7E4" d="M11.648,46.541c2.178-0.562,5.059-3.483,3.629-5.714c-1.765-2.749-6.681-0.396-6.847,2.664
			C8.263,46.552,9.339,47.136,11.648,46.541z"/>
		<path fill="#EAE7E4" d="M28.005,79.516c1.858-0.479,7.552-2.76,6.483-10.908c-0.541-4.127-2.828,5.123-7.063,6.508
			C21.009,77.21,21.73,81.133,28.005,79.516z"/>
	</g>
</g>
</svg>
